{
	"info": {
		"_postman_id": "0b4d491f-7f17-42e2-9b6c-b37cf7381984",
		"name": "CAPSTONE 2",
		"schema": "https://schema.getpostman.com/json/collection/v2.1.0/collection.json"
	},
	"item": [
		{
			"name": "Register",
			"request": {
				"method": "POST",
				"header": []
			},
			"response": []
		},
		{
			"name": "Login",
			"request": {
				"method": "POST",
				"header": [],
				"body": {
					"mode": "raw",
					"raw": "{\r\n    \"email\" : \"capcap\",\r\n    \"password\" : \"123456\"\r\n}",
					"options": {
						"raw": {
							"language": "json"
						}
					}
				},
				"url": {
					"raw": "localhost:3020/users/login",
					"host": [
						"localhost"
					],
					"port": "3020",
					"path": [
						"users",
						"login"
					]
				}
			},
			"response": []
		},
		{
			"name": "ADD product",
			"request": {
				"auth": {
					"type": "bearer",
					"bearer": [
						{
							"key": "token",
							"value": "eyJhbGciOiJIUzI1NiIsInR5cCI6IkpXVCJ9.eyJpZCI6IjYzZDI1NmE1ZDk5NjliNjVhYzA4NGFkNSIsImVtYWlsIjoidXNlcjEiLCJpc0FkbWluIjp0cnVlLCJpYXQiOjE2NzQ5NjE3MjR9.rlGWmuwDKpPu4DlHmo2NgI8AquBgzD6TrVjAtX6XRn0",
							"type": "string"
						}
					]
				},
				"method": "POST",
				"header": [],
				"body": {
					"mode": "raw",
					"raw": "{\r\n    \"name\" : \"NEW PRODUCT 2\",\r\n    \"description\" : \"TRY\",\r\n    \"price\" : 6666,\r\n}",
					"options": {
						"raw": {
							"language": "json"
						}
					}
				},
				"url": {
					"raw": "localhost:3020/products/addProduct",
					"host": [
						"localhost"
					],
					"port": "3020",
					"path": [
						"products",
						"addProduct"
					]
				}
			},
			"response": []
		},
		{
			"name": "Get active",
			"request": {
				"method": "GET",
				"header": []
			},
			"response": []
		},
		{
			"name": "Get all",
			"request": {
				"method": "GET",
				"header": []
			},
			"response": []
		},
		{
			"name": "Get single product",
			"request": {
				"method": "GET",
				"header": []
			},
			"response": []
		},
		{
			"name": "Make Admin",
			"request": {
				"auth": {
					"type": "bearer",
					"bearer": [
						{
							"key": "token",
							"value": "eyJhbGciOiJIUzI1NiIsInR5cCI6IkpXVCJ9.eyJpZCI6IjYzZDEwNGNlNzE3NzQ3Zjc2NWQ2OWIwMiIsImVtYWlsIjoiY2FwY2FwIiwiaXNBZG1pbiI6ZmFsc2UsImlhdCI6MTY3NDcyODUyN30.uMRjGHJTvzxhusHljcJFs9O2ZYE8fj35L9JNVciIe1U",
							"type": "string"
						}
					]
				},
				"method": "PUT",
				"header": [],
				"body": {
					"mode": "raw",
					"raw": "{\r\n    \r\n}",
					"options": {
						"raw": {
							"language": "json"
						}
					}
				},
				"url": {
					"raw": "localhost:3020/users/makeAdmin/63d2578e7b1c9134670fa2f0",
					"host": [
						"localhost"
					],
					"port": "3020",
					"path": [
						"users",
						"makeAdmin",
						"63d2578e7b1c9134670fa2f0"
					]
				}
			},
			"response": []
		},
		{
			"name": "archive product",
			"request": {
				"auth": {
					"type": "bearer",
					"bearer": [
						{
							"key": "token",
							"value": "eyJhbGciOiJIUzI1NiIsInR5cCI6IkpXVCJ9.eyJpZCI6IjYzZDI1NzhlN2IxYzkxMzQ2NzBmYTJmMCIsImVtYWlsIjoidXNlcjIiLCJpc0FkbWluIjpmYWxzZSwiaWF0IjoxNjc0ODIwNTM0fQ.VRBr58KwHAiP2-T0R_ytbwyUhEnKjKX93DZ458eD_N0",
							"type": "string"
						}
					]
				},
				"method": "PUT",
				"header": [],
				"body": {
					"mode": "raw",
					"raw": "{\r\n    \r\n}",
					"options": {
						"raw": {
							"language": "text"
						}
					}
				},
				"url": {
					"raw": "localhost:3020/products/archiveProduct/63d25b53f19112839bdd1e20",
					"host": [
						"localhost"
					],
					"port": "3020",
					"path": [
						"products",
						"archiveProduct",
						"63d25b53f19112839bdd1e20"
					]
				}
			},
			"response": []
		},
		{
			"name": "unarchive product",
			"request": {
				"method": "PUT",
				"header": []
			},
			"response": []
		},
		{
			"name": "Update Product(Admin)",
			"request": {
				"method": "PUT",
				"header": [],
				"body": {
					"mode": "raw",
					"raw": "{\r\n    \"name\" : \"towel\",\r\n    \"description\" : \"Red and Yellow\",\r\n    \"price\" : 170\r\n}",
					"options": {
						"raw": {
							"language": "json"
						}
					}
				},
				"url": {
					"raw": "localhost:3020/products/updateProduct/63d25b53f19112839bdd1e20",
					"host": [
						"localhost"
					],
					"port": "3020",
					"path": [
						"products",
						"updateProduct",
						"63d25b53f19112839bdd1e20"
					]
				}
			},
			"response": []
		},
		{
			"name": "try checkout",
			"request": {
				"auth": {
					"type": "bearer",
					"bearer": [
						{
							"key": "token",
							"value": "eyJhbGciOiJIUzI1NiIsInR5cCI6IkpXVCJ9.eyJpZCI6IjYzZDNlZDYwMzFiM2QwNTIzOTY3MjZkMiIsImVtYWlsIjoidXNlcjQiLCJpc0FkbWluIjpmYWxzZSwiaWF0IjoxNjc0OTU5NDU3fQ.2atFhn1gIbI2ovCAuAp6RaUlqw5eC2bnKVr4TBwd008",
							"type": "string"
						}
					]
				},
				"method": "POST",
				"header": [],
				"body": {
					"mode": "raw",
					"raw": "{\r\n    \"productId\" : \"63d5e362a9b2eade8fcea32a\",\r\n    \"quantity\" : 2\r\n}",
					"options": {
						"raw": {
							"language": "json"
						}
					}
				},
				"url": {
					"raw": "localhost:3020/users/createorders",
					"host": [
						"localhost"
					],
					"port": "3020",
					"path": [
						"users",
						"createorders"
					]
				}
			},
			"response": []
		},
		{
			"name": "GET user Details",
			"request": {
				"method": "GET",
				"header": []
			},
			"response": []
		}
	]
}